<?xml version="1.0" encoding="UTF-8" standalone="no"?>
<svg width="15px" height="15px" viewBox="0 0 15 15" version="1.1"
    xmlns="http://www.w3.org/2000/svg" xmlns:xlink="http://www.w3.org/1999/xlink"
    xmlns:sketch="http://www.bohemiancoding.com/sketch/ns">
    <!-- Generator: Sketch 3.2.1 (9971) - http://www.bohemiancoding.com/sketch -->
    <title>Imported Layers</title>
    <desc>Created with Sketch.</desc>
    <defs></defs>
    <g id="Page-1" stroke="none" stroke-width="1" fill="none" fill-rule="evenodd" sketch:type="MSPage">
        <g id="Artboard-1" sketch:type="MSArtboardGroup" transform="translate(-616.000000, -98.000000)" fill="#FFF">
            <path d="M623.173913,112.348234 C622.936522,112.348234 622.712826,112.289538 622.510652,112.172799 L616.721304,109.016277 C616.501522,108.894973 616.324783,108.72606 616.195652,108.512799 C616.065217,108.293669 616,108.057582 616,107.808451 L616,101.48693 C616,101.198669 616.08413,100.933234 616.24913,100.698451 C616.413478,100.463016 616.634565,100.292799 616.905217,100.193016 L622.700435,98.0858426 C623.015435,97.97106 623.335,97.9717121 623.648043,98.0858426 L629.441957,100.193016 C629.713261,100.292799 629.934348,100.462364 630.1,100.698451 C630.265,100.93519 630.347826,101.199973 630.347826,101.48693 L630.347826,107.808451 C630.347826,108.058234 630.282609,108.294321 630.154783,108.51019 C630.026304,108.724756 629.848913,108.894321 629.627826,109.015625 L623.831957,112.176712 C623.635652,112.289538 623.411957,112.348234 623.173913,112.348234 L623.173913,112.348234 Z M623.173913,98.6519295 C623.092391,98.6519295 623.007609,98.6675817 622.922174,98.698886 L617.128913,100.805408 C616.985435,100.858886 616.871304,100.946277 616.783261,101.072147 C616.695217,101.198016 616.652174,101.333669 616.652174,101.48693 L616.652174,107.808451 C616.652174,107.940843 616.685435,108.061495 616.753913,108.17693 C616.823043,108.290408 616.915,108.378451 617.034348,108.444321 L622.828913,111.604103 C623.049348,111.730625 623.305652,111.727364 623.513696,111.607364 L629.314783,108.443669 C629.434783,108.377799 629.526087,108.289756 629.595217,108.175625 C629.662391,108.062147 629.695652,107.941495 629.695652,107.808451 L629.695652,101.48693 C629.695652,101.333669 629.653261,101.198016 629.56587,101.072147 C629.477174,100.946277 629.363043,100.858886 629.218261,100.805408 L623.425,98.6982339 C623.338913,98.6675817 623.256739,98.6519295 623.173913,98.6519295 L623.173913,98.6519295 Z M623.701522,111.00606 C623.643478,111.00606 623.586087,110.99106 623.535217,110.960408 C623.435435,110.901712 623.375435,110.795408 623.375435,110.679973 L623.375435,104.490843 C623.375435,104.353886 623.461522,104.231277 623.59,104.184321 L628.857609,102.26693 C628.958043,102.229756 629.068261,102.244756 629.156304,102.30606 C629.243043,102.367364 629.295217,102.467147 629.295217,102.573451 L629.295217,107.808451 C629.295217,107.927799 629.23,108.037364 629.125,108.094756 L623.857391,110.966277 C623.80913,110.993016 623.755,111.00606 623.701522,111.00606 L623.701522,111.00606 Z M624.027609,104.719103 L624.027609,110.130843 L628.643043,107.614756 L628.643043,103.039103 L624.027609,104.719103 L624.027609,104.719103 Z M623.173913,103.887582 C623.136087,103.887582 623.098261,103.88106 623.062391,103.868016 L617.317391,101.776495 C617.188913,101.729538 617.102826,101.60693 617.102826,101.469973 C617.102826,101.333016 617.188913,101.210408 617.317391,101.164103 L623.062391,99.0732339 C623.133478,99.0477991 623.214348,99.0477991 623.285435,99.0732339 L629.030435,101.164103 C629.158913,101.210408 629.245,101.333016 629.245,101.469973 C629.245,101.60693 629.158913,101.729538 629.030435,101.776495 L623.285435,103.868016 C623.249565,103.88106 623.211739,103.887582 623.173913,103.887582 L623.173913,103.887582 Z M618.382391,101.469973 L623.173913,103.214538 L627.965435,101.469973 L623.173913,99.7267121 L618.382391,101.469973 L618.382391,101.469973 Z" id="Imported-Layers" sketch:type="MSShapeGroup"></path>
        </g>
    </g>
</svg>
